Using Machine Learning to Predict Water Potability
…
# checking that the recipe works 
prep(recipe) %>% 
  bake(water_train)

# A tibble: 2,456 × 10
         ph hardness solids chloramines sulfate conductivity organic_carbon
      <dbl>    <dbl>  <dbl>       <dbl>   <dbl>        <dbl>          <dbl>
 1  0.00285    0.238 -0.162      0.0924  0.955         1.69         -1.20  
 2 -2.24      -2.13  -0.399     -0.338   0.0888        2.04          0.247 
 3  0.675      0.846 -0.259      1.37    0.0557       -0.116         0.757 
 4  1.34      -0.509 -0.470     -0.395  -0.653        -0.366        -0.845 
 5 -0.999     -0.282  0.709      0.251  -0.197        -1.83         -1.80  
 6  1.03       0.190 -0.942     -1.68   -0.841         0.577        -0.602 
 7 -0.233     -2.46  -0.875      0.418  -1.80         -0.478        -0.499 
 8  0.592      0.672 -0.384      0.616   0.0853       -0.791         0.0501
 9  0.0231    -1.28  -0.388     -2.30   -1.42         -0.994         0.474 
10 -0.148     -1.48   0.554     -0.206  -0.948        -0.597         1.51  
# ℹ 2,446 more rows
# ℹ 3 more variables: trihalomethanes <dbl>, turbidity <dbl>, potability <fct>
…
